<svg width="31" height="30" viewBox="0 0 31 30" fill="none" xmlns="http://www.w3.org/2000/svg">
<rect x="10.5" y="10" width="2" height="2" fill="#00916E"/>
<rect x="18.5" y="10" width="2" height="2" fill="#00916E"/>
<rect x="18.5" y="18" width="2" height="2" fill="#00916E"/>
<rect x="10.5" y="18" width="2" height="2" fill="#00916E"/>
</svg>
