<svg width="50" height="50" viewBox="0 0 50 50" fill="none" xmlns="http://www.w3.org/2000/svg">
<mask id="path-1-outside-1" maskUnits="userSpaceOnUse" x="3" y="10" width="44" height="25" fill="black">
<rect fill="white" x="3" y="10" width="44" height="25"/>
<path d="M34.2207 28.1876C33.8901 28.1876 33.5669 28.0875 33.292 27.9C33.017 27.7125 32.8028 27.446 32.6762 27.1342C32.5497 26.8224 32.5166 26.4793 32.5811 26.1483C32.6456 25.8173 32.8048 25.5133 33.0386 25.2746C33.2724 25.036 33.5703 24.8735 33.8946 24.8076C34.2189 24.7418 34.555 24.7756 34.8605 24.9047C35.1659 25.0339 35.427 25.2526 35.6107 25.5332C35.7944 25.8138 35.8925 26.1437 35.8925 26.4812C35.8925 26.9338 35.7163 27.3678 35.4028 27.6878C35.0893 28.0078 34.6641 28.1876 34.2207 28.1876ZM15.8141 28.1876C15.4835 28.1876 15.1602 28.0875 14.8853 27.9C14.6104 27.7125 14.3961 27.446 14.2696 27.1342C14.1431 26.8224 14.11 26.4793 14.1745 26.1483C14.239 25.8173 14.3982 25.5133 14.632 25.2746C14.8658 25.036 15.1637 24.8735 15.488 24.8076C15.8122 24.7418 16.1484 24.7756 16.4539 24.9047C16.7593 25.0339 17.0204 25.2526 17.2041 25.5332C17.3878 25.8138 17.4858 26.1437 17.4858 26.4812C17.4858 26.9338 17.3097 27.3678 16.9962 27.6878C16.6827 28.0078 16.2575 28.1876 15.8141 28.1876ZM34.8128 17.9493L38.1563 12.0658C38.2014 11.9853 38.2305 11.8964 38.2419 11.8043C38.2532 11.7123 38.2467 11.6188 38.2225 11.5294C38.1984 11.4399 38.1572 11.3562 38.1013 11.283C38.0454 11.2098 37.9759 11.1487 37.8967 11.103C37.8176 11.0573 37.7304 11.0281 37.6401 11.0169C37.5499 11.0058 37.4584 11.0129 37.3708 11.038C37.2833 11.063 37.2015 11.1055 37.1301 11.1629C37.0587 11.2203 36.9991 11.2916 36.9547 11.3726L33.5764 17.3272C30.8932 16.0757 27.9761 15.4328 25.0261 15.4431C22.0726 15.4357 19.1516 16.072 16.4584 17.3094L13.0801 11.3548C12.9896 11.1932 12.84 11.0747 12.6641 11.0252C12.4881 10.9758 12.3002 10.9995 12.1414 11.0912C11.9826 11.1828 11.8657 11.3349 11.8165 11.5142C11.7672 11.6936 11.7895 11.8855 11.8785 12.0481L15.2046 17.9315C12.3288 19.5325 9.8895 21.8403 8.10768 24.646C6.32585 27.4517 5.25773 30.6667 5 34H45C44.7502 30.6691 43.687 27.4551 41.9075 24.6514C40.128 21.8477 37.6889 19.5435 34.8128 17.9493Z"/>
</mask>
<path d="M38.1563 12.0658L39.0257 12.5599L39.0288 12.5545L38.1563 12.0658ZM36.9547 11.3726L37.8245 11.8661L37.8282 11.8595L37.8319 11.8528L36.9547 11.3726ZM33.5764 17.3272L33.1537 18.2334L33.9905 18.6238L34.4462 17.8206L33.5764 17.3272ZM25.0261 15.4431L25.0236 16.4431L25.0296 16.443L25.0261 15.4431ZM16.4584 17.3094L15.5887 17.8029L16.0417 18.6014L16.8759 18.2181L16.4584 17.3094ZM13.0801 11.3548L12.2076 11.8435L12.2103 11.8483L13.0801 11.3548ZM11.8785 12.0481L11.0013 12.5283L11.008 12.5402L11.8785 12.0481ZM15.2046 17.9315L15.691 18.8053L16.5705 18.3157L16.0751 17.4394L15.2046 17.9315ZM5 34L4.00298 33.9229L3.9197 35H5V34ZM45 34V35H46.0778L45.9972 33.9252L45 34ZM34.2207 27.1876C34.0925 27.1876 33.9654 27.1489 33.8554 27.0739L32.7285 28.7262C33.1683 29.0262 33.6877 29.1876 34.2207 29.1876V27.1876ZM33.8554 27.0739C33.7452 26.9987 33.6562 26.8897 33.6028 26.7582L31.7496 27.5103C31.9493 28.0024 32.2889 28.4264 32.7285 28.7262L33.8554 27.0739ZM33.6028 26.7582C33.5494 26.6266 33.5352 26.4807 33.5626 26.3396L31.5996 25.9571C31.498 26.478 31.55 27.0183 31.7496 27.5103L33.6028 26.7582ZM33.5626 26.3396C33.5901 26.1987 33.6574 26.072 33.7529 25.9745L32.3243 24.5748C31.9522 24.9546 31.7011 25.436 31.5996 25.9571L33.5626 26.3396ZM33.7529 25.9745C33.8483 25.8772 33.9672 25.8133 34.0936 25.7876L33.6956 23.8276C33.1734 23.9337 32.6966 24.1948 32.3243 24.5748L33.7529 25.9745ZM34.0936 25.7876C34.2198 25.762 34.3508 25.775 34.4711 25.8258L35.2499 23.9837C34.7592 23.7762 34.218 23.7216 33.6956 23.8276L34.0936 25.7876ZM34.4711 25.8258C34.5915 25.8767 34.6978 25.9644 34.7741 26.0809L36.4474 24.9855C36.1563 24.5408 35.7404 24.1911 35.2499 23.9837L34.4711 25.8258ZM34.7741 26.0809C34.8505 26.1977 34.8925 26.337 34.8925 26.4812H36.8925C36.8925 25.9505 36.7384 25.43 36.4474 24.9855L34.7741 26.0809ZM34.8925 26.4812C34.8925 26.6751 34.8168 26.857 34.6885 26.988L36.1171 28.3877C36.6159 27.8786 36.8925 27.1925 36.8925 26.4812H34.8925ZM34.6885 26.988C34.5609 27.1183 34.3922 27.1876 34.2207 27.1876V29.1876C34.936 29.1876 35.6178 28.8974 36.1171 28.3877L34.6885 26.988ZM15.8141 27.1876C15.6859 27.1876 15.5588 27.1489 15.4488 27.0739L14.3219 28.7262C14.7617 29.0262 15.2811 29.1876 15.8141 29.1876V27.1876ZM15.4488 27.0739C15.3385 26.9987 15.2496 26.8897 15.1962 26.7582L13.343 27.5103C13.5427 28.0024 13.8823 28.4264 14.3219 28.7262L15.4488 27.0739ZM15.1962 26.7582C15.1428 26.6266 15.1285 26.4807 15.156 26.3396L13.1929 25.9571C13.0914 26.478 13.1433 27.0183 13.343 27.5103L15.1962 26.7582ZM15.156 26.3396C15.1835 26.1987 15.2508 26.072 15.3463 25.9745L13.9177 24.5748C13.5456 24.9546 13.2945 25.436 13.1929 25.9571L15.156 26.3396ZM15.3463 25.9745C15.4416 25.8772 15.5606 25.8133 15.6869 25.7876L15.289 23.8276C14.7668 23.9337 14.29 24.1948 13.9177 24.5748L15.3463 25.9745ZM15.6869 25.7876C15.8132 25.762 15.9442 25.775 16.0644 25.8258L16.8433 23.9837C16.3525 23.7762 15.8113 23.7216 15.289 23.8276L15.6869 25.7876ZM16.0644 25.8258C16.1849 25.8767 16.2912 25.9644 16.3674 26.0809L18.0408 24.9855C17.7497 24.5408 17.3338 24.1911 16.8433 23.9837L16.0644 25.8258ZM16.3674 26.0809C16.4439 26.1977 16.4858 26.337 16.4858 26.4812H18.4858C18.4858 25.9505 18.3318 25.43 18.0408 24.9855L16.3674 26.0809ZM16.4858 26.4812C16.4858 26.6751 16.4102 26.857 16.2819 26.988L17.7105 28.3877C18.2092 27.8786 18.4858 27.1925 18.4858 26.4812H16.4858ZM16.2819 26.988C16.1543 27.1183 15.9856 27.1876 15.8141 27.1876V29.1876C16.5294 29.1876 17.2111 28.8974 17.7105 28.3877L16.2819 26.988ZM35.6822 18.4434L39.0257 12.5599L37.2869 11.5718L33.9434 17.4552L35.6822 18.4434ZM39.0288 12.5545C39.1375 12.3603 39.2071 12.147 39.2343 11.9269L37.2494 11.6818C37.2538 11.6458 37.2653 11.6103 37.2838 11.5772L39.0288 12.5545ZM39.2343 11.9269C39.2615 11.7068 39.2458 11.4834 39.1881 11.2691L37.257 11.7897C37.2475 11.7543 37.245 11.7177 37.2494 11.6818L39.2343 11.9269ZM39.1881 11.2691C39.1303 11.0548 39.0313 10.8531 38.8959 10.6758L37.3067 11.8902C37.2831 11.8593 37.2665 11.825 37.257 11.7897L39.1881 11.2691ZM38.8959 10.6758C38.7604 10.4985 38.5909 10.349 38.3965 10.2368L37.397 11.9692C37.3608 11.9483 37.3304 11.9211 37.3067 11.8902L38.8959 10.6758ZM38.3965 10.2368C38.2019 10.1246 37.9866 10.0522 37.7628 10.0245L37.5174 12.0094C37.4742 12.004 37.4332 11.9901 37.397 11.9692L38.3965 10.2368ZM37.7628 10.0245C37.5391 9.99683 37.3122 10.0146 37.0957 10.0766L37.646 11.9994C37.6045 12.0113 37.5607 12.0147 37.5174 12.0094L37.7628 10.0245ZM37.0957 10.0766C36.8792 10.1385 36.678 10.2432 36.5034 10.3836L37.7567 11.9422C37.725 11.9678 37.6874 11.9875 37.646 11.9994L37.0957 10.0766ZM36.5034 10.3836C36.3288 10.524 36.1845 10.6972 36.0776 10.8924L37.8319 11.8528C37.8137 11.886 37.7885 11.9167 37.7567 11.9422L36.5034 10.3836ZM36.085 10.8791L32.7066 16.8337L34.4462 17.8206L37.8245 11.8661L36.085 10.8791ZM33.9991 16.4209C31.183 15.1074 28.1205 14.4323 25.0227 14.4431L25.0296 16.443C27.8318 16.4334 30.6035 17.0439 33.1537 18.2334L33.9991 16.4209ZM25.0286 14.4431C21.9296 14.4353 18.8654 15.103 16.0409 16.4007L16.8759 18.2181C19.4379 17.041 22.2156 16.436 25.0236 16.443L25.0286 14.4431ZM17.3282 16.816L13.9499 10.8614L12.2103 11.8483L15.5887 17.8029L17.3282 16.816ZM13.9526 10.8662C13.7344 10.4765 13.3701 10.1849 12.9345 10.0625L12.3937 11.988C12.3098 11.9644 12.2448 11.9098 12.2076 11.8435L13.9526 10.8662ZM12.9345 10.0625C12.4983 9.93998 12.0328 9.99934 11.6417 10.225L12.6411 11.9574C12.5676 11.9997 12.478 12.0117 12.3937 11.988L12.9345 10.0625ZM11.6417 10.225C11.2513 10.4502 10.9701 10.8203 10.8522 11.2494L12.7808 11.7791C12.7614 11.8495 12.7138 11.9154 12.6411 11.9574L11.6417 10.225ZM10.8522 11.2494C10.7344 11.678 10.7873 12.1372 11.0014 12.5283L12.7557 11.5678C12.7918 11.6338 12.8 11.7091 12.7808 11.7791L10.8522 11.2494ZM11.008 12.5402L14.3341 18.4237L16.0751 17.4394L12.7491 11.5559L11.008 12.5402ZM14.7182 17.0578C11.6954 18.7406 9.13371 21.165 7.26352 24.1099L8.95183 25.1821C10.6453 22.5155 12.9621 20.3244 15.691 18.8053L14.7182 17.0578ZM7.26352 24.1099C5.3934 27.0546 4.27324 30.4274 4.00298 33.9229L5.99702 34.0771C6.24221 30.906 7.2583 27.8488 8.95183 25.1821L7.26352 24.1099ZM5 35H45V33H5V35ZM45.9972 33.9252C45.7352 30.4314 44.6199 27.0589 42.7518 24.1155L41.0632 25.1873C42.7541 27.8513 43.7652 30.9068 44.0028 34.0748L45.9972 33.9252ZM42.7518 24.1155C40.8836 21.1721 38.3215 18.7508 35.2976 17.0747L34.328 18.8239C37.0563 20.3363 39.3724 22.5233 41.0632 25.1873L42.7518 24.1155Z" fill="#FEEFE5" mask="url(#path-1-outside-1)"/>
</svg>
