<svg width="50" height="50" viewBox="0 0 50 50" fill="none" xmlns="http://www.w3.org/2000/svg">
<path d="M12.4191 23.6539L12.2712 23.4974H12.0558H5.53642C5.9235 18.8747 7.90133 14.5819 11.207 11.2634C14.9104 7.54595 19.8311 5.5 25.0675 5.5C26.4266 5.5 27.7641 5.6386 29.0645 5.90773L28.7797 10.2127L18.3566 12.9253L17.9825 13.0227V13.4092V16.3417L15.4247 18.9094L15.2789 19.0557V19.2622V23.1967V23.5052L15.5546 23.6435L21.8615 26.8091L21.9673 26.8622H22.0858H26.8724L31.5 33.8303V34.9962L27.3751 37.0669H24.9676H24.658L24.52 37.344L20.9885 44.4343C20.0882 44.244 19.2059 43.9907 18.3468 43.6766L21.597 38.886L21.8286 38.5445L21.5373 38.2523L18.6348 35.3408V30.4259V30.227L18.4981 30.0824L12.4191 23.6539Z" stroke="#FEEFE5"/>
<path d="M37.0433 15.588L37.1784 15.4611L37.1982 15.2769L37.6639 10.9483C38.008 11.2299 38.3432 11.5233 38.6687 11.8289C42.4339 15.3636 44.5 20.0536 44.5 25.0377C44.5 27.0353 44.1678 28.9842 43.5286 30.8298L39.6137 23.9449L39.5353 23.8068L39.3915 23.7394L34.5 21.4434V17.9755L37.0433 15.588Z" stroke="#FEEFE5"/>
<path d="M11.1525 39.1111C7.87639 35.6935 5.91512 31.2682 5.53478 26.5H10.7595L15.1661 31.3425V36.4528V36.6538L15.3053 36.7989L17.3641 38.945L15.1561 42.327C13.712 41.453 12.3662 40.3772 11.1525 39.1111Z" stroke="#FEEFE5"/>
<path d="M25.0978 44.5C24.9117 44.5 24.7258 44.4973 24.5402 44.4921L26.792 40.0952H28.1513H28.2668L28.3707 40.0445L34.827 36.8924L35.1076 36.7553V36.443V32.6566V32.5021L35.0205 32.3746L28.9241 23.4465L28.7753 23.2285H28.5112H22.7301L18.5 21.1635V20.1995L21.1173 17.6442L21.268 17.4971V17.2865V15.3966L31.7989 12.7311L32.1504 12.6421L32.1751 12.2803L32.5545 6.70141C33.4286 7.04204 34.2774 7.44324 35.0955 7.90297L34.5343 13.329L31.8464 15.9532L31.6957 16.1003V16.3109V22.9311V23.2434L31.9764 23.3804L37.6923 26.1707L42.4246 34.8265C41.5698 36.2423 40.525 37.5627 39.302 38.7569C35.5092 42.4597 30.4666 44.5 25.0978 44.5Z" stroke="#FEEFE5"/>
</svg>
