<svg id="etbjdnxv06h1" xmlns="http://www.w3.org/2000/svg" xmlns:xlink="http://www.w3.org/1999/xlink" width="1920" height="362" viewBox="0 0 1920 362" shape-rendering="geometricPrecision" text-rendering="geometricPrecision">
<path id="etbjdnxv06h2" d="M0,296.737000C28.666100,303.191000,48.276600,306.116000,79.500000,305.418000C141.103000,304.043000,186.396000,286.108000,231,261.330000C268.158000,240.688000,302.825000,215.583000,339,192.353000C381.704000,164.929000,426.511000,140.117000,480,128.339000C512.406000,121.204000,541.238000,120.342000,567.500000,124.179000C607.222000,129.981000,641.063000,146.531000,672.500000,168.373000C698.756000,186.616000,723.334000,208.551000,748.259000,231C786.570000,265.505000,825.700000,301.225000,873,326.622000C899.101000,340.636000,927.689000,351.507000,960,357.297000C1023.790000,368.727000,1076.640000,352.351000,1125.880000,326.622000C1165.830000,305.751000,1203.400000,278.724000,1242.500000,255.389000C1281.660000,232.023000,1322.350000,212.359000,1368.500000,206.288000C1401.810000,201.907000,1437.950000,204.604000,1478.420000,218.095000C1520.360000,232.078000,1555.660000,235.311000,1586.200000,231C1639.470000,223.478000,1678.250000,192.993000,1712.500000,156.559000C1745.820000,121.114000,1774.870000,80.039200,1808.820000,49C1839.580000,20.882100,1874.360000,1,1920,1" fill="none" stroke="rgb(0,145,110)" stroke-width="2"/>
</svg>

