<svg width="70" height="70" viewBox="0 0 70 70" fill="none" xmlns="http://www.w3.org/2000/svg">
<path d="M55.849 41.888V14L31.5 48.86H48.2347V56H55.7653V48.86H60.2V41.888H55.849ZM44.6367 41.888L48.3184 36.596V41.888H44.6367Z" fill="url(#paint0_linear)"/>
<path d="M9.80005 56H34.716L39.7836 49.014L56 25.7836V14L31.5064 49.014H24.5807H15.29L9.80005 56Z" fill="url(#paint1_linear)"/>
<path d="M36.4052 33.0602C35.8984 34.241 35.1383 35.506 34.1247 36.7711L24.5807 49H31.422L56 14V25.8072L39.6991 49L34.716 56H9.80005C11.7704 53.4105 13.7956 50.8424 15.8242 48.2699C19.9577 43.0281 27.0235 33.5631 27.8319 32.2744C28.6403 30.9857 29.3276 30.0607 29.3276 28.6454C29.3276 25.7986 27.0172 23.4909 24.1673 23.4909C21.5188 23.4909 19.3363 25.4838 19.0409 28.0503C19.0184 28.2292 19.0063 28.4098 19.0063 28.5904V29.8554H11.3203V28.506C11.3203 26.9036 11.6582 25.3012 12.3339 23.7831C13.0096 22.2651 13.9386 21 15.1211 19.9036C16.3035 18.8072 17.7394 17.8795 19.2596 17.2892C22.3847 16.0241 26.1854 16.0241 29.3105 17.2892C30.9152 17.9639 32.2666 18.8072 33.449 19.9036C34.6315 21 35.5606 22.3494 36.2362 23.7831C36.9119 25.2169 37.2498 26.8193 37.2498 28.506C37.2498 30.2771 36.9964 31.7952 36.4052 33.0602Z" fill="#FEEFE5"/>
<defs>
<linearGradient id="paint0_linear" x1="43.3091" y1="31.955" x2="60.1758" y2="48.7507" gradientUnits="userSpaceOnUse">
<stop stop-color="#005180"/>
<stop offset="1" stop-color="#FEEFE5"/>
</linearGradient>
<linearGradient id="paint1_linear" x1="26.8149" y1="49.8215" x2="54.0106" y2="12.5993" gradientUnits="userSpaceOnUse">
<stop stop-color="#FEEFE5"/>
<stop offset="1" stop-color="#009CFC"/>
</linearGradient>
</defs>
</svg>
