<svg width="80" height="30" viewBox="0 0 80 30" fill="none" xmlns="http://www.w3.org/2000/svg">
<path fill-rule="evenodd" clip-rule="evenodd" d="M54.8207 8.72585C56.393 8.72585 57.6675 7.44431 57.6675 5.864C57.6675 4.28277 56.393 3 54.8207 3C53.2501 3 51.9762 4.28277 51.9762 5.864C51.9762 7.44431 53.2501 8.72585 54.8207 8.72585ZM33.0173 10.2714C32.8889 10.596 31.9643 13.2234 29.7282 15.9465V4.30308L23.7702 5.48769V26.5926H29.7282V20.0689C31.4538 22.6726 32.3059 26.5926 32.3059 26.5926H39.4424C38.7365 23.6403 35.6486 18.1966 35.6486 18.1966C38.4199 14.6618 39.6372 10.8954 39.8308 10.2714H33.0173ZM48.6807 10.0511C43.3441 10.2234 40.6352 12.632 40.6352 17.42V26.5926H46.4571V19.1126C46.4571 16.2455 46.8302 15.0166 50.2121 14.8994V10.1351C49.6429 10.0135 48.6807 10.0511 48.6807 10.0511ZM13.778 12.5954C13.0482 12.5471 11.3587 12.4372 11.3587 10.9071C11.3587 9.06062 13.7911 9.06061 14.7035 9.06061C16.3077 9.06061 18.3853 9.53754 19.869 9.984C19.869 9.984 20.6967 10.2775 21.401 10.5782L21.4665 10.596V5.53908L21.3766 5.51231C19.6256 4.896 17.5895 4.30308 13.8147 4.30308C7.30613 4.30308 5 8.11754 5 11.3852C5 13.2689 5.80256 17.7022 13.2565 18.2135C13.8884 18.2526 15.5654 18.3498 15.5654 19.9311C15.5654 21.2366 14.1924 22.0065 11.8832 22.0065C9.35259 22.0065 6.89782 21.3572 5.40678 20.7415V25.9498C7.6389 26.5385 10.1551 26.8326 13.1042 26.8326C19.4681 26.8326 22.3183 23.2237 22.3183 19.6468C22.3183 15.5911 19.1289 12.956 13.778 12.5954ZM51.9346 26.5926H57.7094V10.2898H51.9346V26.5926ZM68.5831 5.34246V26.5926H74.3588V4.30308L68.5831 5.34246ZM60.1556 5.34246L65.9259 4.30308V26.5926H60.1556V5.34246Z" fill="url(#paint0_linear)"/>
<defs>
<linearGradient id="paint0_linear" x1="23.7574" y1="3" x2="29.03" y2="32.3853" gradientUnits="userSpaceOnUse">
<stop stop-color="#FEEFE5"/>
<stop offset="1" stop-color="#FEEFE5"/>
</linearGradient>
</defs>
</svg>
