<svg width="72" height="72" viewBox="0 0 72 72" fill="none" xmlns="http://www.w3.org/2000/svg">
<path d="M19.1378 6.13762L30.8955 39.6513V39.6356L31.8252 42.2758C36.9891 56.9778 39.7625 64.8671 39.7782 64.8828C39.786 64.8907 40.5672 64.9378 41.5125 64.985C44.3718 65.1264 47.9187 65.4329 50.6139 65.7708C51.2311 65.8493 51.7702 65.8886 51.8014 65.8572L40.1453 32.5714V32.5792L39.0672 29.5147C38.0126 26.5208 37.3094 24.5171 33.0673 12.4632C31.9267 9.21789 30.958 6.4755 30.9189 6.34978L30.8408 6.12976H24.9893L19.1378 6.13762Z" fill="#FEEFE5"/>
<path d="M19.1769 65.8651C19.1534 65.8415 19.1378 55.3967 19.1378 38.9817V9.13766L30.8955 42.6513V42.6356L30.9032 42.6576L30.8798 52.271C30.8642 64.2464 30.8564 64.9143 30.7236 64.9143C30.2861 64.9221 26.4424 65.1657 25.1612 65.2757C24.3252 65.3465 22.6456 65.5193 21.4268 65.6529C20.2081 65.7865 19.2003 65.8887 19.1769 65.8651Z" fill="#FEEFE5"/>
<path d="M51.6961 62.8681C51.7644 62.8688 51.807 62.8654 51.817 62.8573C51.8561 62.8259 51.8639 49.389 51.8561 32.9897L51.8327 6.17704H40.1922L40.1453 29.5714L51.8014 62.8572C51.7939 62.8648 51.7567 62.8683 51.6961 62.8681Z" fill="#FEEFE5"/>
</svg>
