<svg width="180" height="180" viewBox="0 0 180 180" fill="none" xmlns="http://www.w3.org/2000/svg">
<path d="M9.07129 153.785V17.6426H145.214V153.785H9.07129Z" stroke="#FEEFE5"/>
<path d="M51.4287 34.2852H128.572" stroke="#FEEFE5"/>
<path d="M51.4287 51.4277H128.572" stroke="#FEEFE5"/>
<path d="M51.4287 68.5723H128.572" stroke="#FEEFE5"/>
<path d="M51.4287 85.7148H128.572" stroke="#FEEFE5"/>
<path d="M51.4287 102.857H128.572" stroke="#FEEFE5"/>
<path d="M51.4287 120H128.572" stroke="#FEEFE5"/>
<path d="M34.7861 136.643V0.5H170.929V136.643H34.7861Z" stroke="#FEEFE5"/>
<path d="M100.479 107.979L129.643 95.8986L158.807 107.979L170.888 137.143L158.807 166.307L129.643 178.388L100.479 166.307L88.3986 137.143L100.479 107.979Z" fill="#001C47" stroke="#FEEFE5"/>
<path d="M146.083 142.314V120.801L127.3 147.693H140.209V153.201H146.019V147.693H149.44V142.314H146.083ZM137.434 142.314L140.274 138.232V142.314H137.434Z" fill="url(#paint0_linear)"/>
<path d="M110.56 153.201H129.78L133.69 147.812L146.2 129.891V120.801L127.305 147.812H121.962H114.795L110.56 153.201Z" fill="url(#paint1_linear)"/>
<path d="M131.084 135.504C130.693 136.415 130.106 137.391 129.324 138.367L121.962 147.801H127.239L146.2 120.801V129.909L133.625 147.801L129.78 153.201H110.56C112.08 151.203 113.642 149.222 115.207 147.238C118.395 143.194 123.846 135.892 124.47 134.898C125.093 133.904 125.624 133.19 125.624 132.099C125.624 129.903 123.841 128.122 121.643 128.122C119.6 128.122 117.916 129.66 117.688 131.64C117.671 131.778 117.662 131.917 117.662 132.056V133.032H111.732V131.991C111.732 130.755 111.993 129.519 112.514 128.348C113.035 127.177 113.752 126.201 114.664 125.355C115.577 124.509 116.684 123.794 117.857 123.338C120.268 122.362 123.2 122.362 125.61 123.338C126.848 123.859 127.891 124.509 128.803 125.355C129.715 126.201 130.432 127.242 130.953 128.348C131.474 129.454 131.735 130.69 131.735 131.991C131.735 133.357 131.54 134.528 131.084 135.504Z" fill="#FEEFE5"/>
<defs>
<linearGradient id="paint0_linear" x1="136.41" y1="134.652" x2="149.421" y2="147.608" gradientUnits="userSpaceOnUse">
<stop stop-color="#005180"/>
<stop offset="1" stop-color="#FEEFE5"/>
</linearGradient>
<linearGradient id="paint1_linear" x1="123.685" y1="148.434" x2="144.665" y2="119.72" gradientUnits="userSpaceOnUse">
<stop stop-color="#FEEFE5"/>
<stop offset="1" stop-color="#009CFC"/>
</linearGradient>
</defs>
</svg>
