<svg width="72" height="72" viewBox="0 0 72 72" fill="none" xmlns="http://www.w3.org/2000/svg">
<path d="M59.0476 20.7022C58.303 21.4553 56.5523 22.9965 53.5824 24.3485C53.3328 24.4621 53.0447 24.292 53.0241 24.0185C52.9465 22.9893 51.8341 20.996 44.4515 20.8262C44.2563 20.8216 44.086 20.9586 44.0502 21.1507L36.4976 61.6755C36.4169 62.1083 35.797 62.1083 35.7164 61.6755L28.1635 21.1507C28.1277 20.9586 27.9574 20.8216 27.7621 20.8262C20.3796 20.996 19.2672 22.9893 19.1896 24.0185C19.1689 24.292 18.8808 24.462 18.6313 24.3485C15.6614 22.9964 13.9107 21.4553 13.1661 20.7022C12.9572 20.4909 13.0477 20.1355 13.3305 20.0445C22.9042 16.9646 31.7836 17.4906 33.1301 17.5932C33.2419 17.6016 33.3441 17.6567 33.413 17.7452L35.7933 20.8027C35.9524 21.0071 36.2613 21.0071 36.4204 20.8027L38.8007 17.7452C38.8696 17.6567 38.9718 17.6016 39.0836 17.5932C40.4299 17.4905 49.3095 16.9646 58.883 20.0445C59.166 20.1355 59.2565 20.4909 59.0476 20.7022Z" fill="#FEEFE5"/>
<path d="M62.1905 14.0311L60.848 16.9633C60.7895 17.0911 60.6416 17.1509 60.5106 17.0997C59.0603 16.5339 50.8229 13.5967 36.1081 13.5967C21.3931 13.5967 13.1545 16.5341 11.7042 17.0997C11.5732 17.1509 11.4254 17.0911 11.3668 16.9633L10.0243 14.0311C9.96089 13.8927 10.0259 13.7286 10.1679 13.6736C22.8148 8.77547 49.4 8.77547 62.0469 13.6736C62.1889 13.7287 62.2538 13.8927 62.1905 14.0311Z" fill="#FEEFE5"/>
</svg>
